<svg
	xmlns="http://www.w3.org/2000/svg" width="146.4" height="124.9" overflow="visible">
	<path @click="setRang(21)" @touchstart="setRang(21)" id="bn1" d="M33 100c1.7 2.5 3.6 4.8 5.7 7l-17.8 17.4c-3.2-3.2-6-6.8-8.6-10.5L33 100z"/>
	<path @click="setRang(21)" @touchstart="setRang(21)" id="bn2" d="M28.6 91.7c1.1 2.8 2.5 5.4 4.2 7.9L12 113.2c-2.5-3.8-4.6-7.8-6.4-12l23-9.5z"/>
	<path @click="setRang(21)" @touchstart="setRang(21)" id="bn3" d="M25.8 82.6c.6 2.9 1.4 5.8 2.6 8.6l-23.1 9.3c-1.7-4.2-3-8.6-3.9-13l24.4-4.9z"/>
	<path @click="setRang(21)" @touchstart="setRang(21)" id="bn4" d="M24.9 73.2c0 3 .3 6 .8 8.9L1.3 86.7C.4 82.2 0 77.7 0 73.2h24.9z"/>
	<path @click="setRang(21)" @touchstart="setRang(21)" id="bn5" d="M25.8 63.8c-.6 2.9-.9 5.9-.9 8.9L0 72.4c0-4.5.5-9 1.4-13.5l24.4 4.9z"/>
	<path @click="setRang(21)" @touchstart="setRang(21)" id="bn6" d="M28.6 54.7c-1.1 2.8-2 5.6-2.6 8.5l-24.4-5c.9-4.4 2.3-8.8 4-13l23 9.5z"/>
	<path @click="setRang(21)" @touchstart="setRang(21)" id="bn7" d="M33 46.4c-1.7 2.5-3.1 5.1-4.3 7.9L5.9 44.5c1.8-4.2 4-8.2 6.5-11.9L33 46.4z"/>
	<path @click="setRang(21)" @touchstart="setRang(21)" id="bn8" d="M39.1 39.1c-2.1 2.1-4 4.4-5.7 6.9L12.8 31.9c2.6-3.7 5.5-7.2 8.7-10.4l17.6 17.6z"/>
	<path @click="setRang(21)" @touchstart="setRang(21)" id="bn9" d="M46.4 33c-2.5 1.7-4.8 3.6-7 5.7L22 20.9c3.2-3.2 6.8-6 10.5-8.6L46.4 33z"/>
	<path @click="setRang(21)" @touchstart="setRang(21)" id="bn10" d="M54.7 28.6c-2.8 1.1-5.4 2.5-7.9 4.2L33.2 11.9c3.8-2.5 7.8-4.6 12-6.4l9.5 23.1z"/>
	<path @click="setRang(21)" @touchstart="setRang(21)" id="bn11" d="M63.8 25.8c-2.9.6-5.8 1.4-8.6 2.6L45.9 5.3c4.2-1.7 8.6-3 13-3.9l4.9 24.4z"/>
	<path @click="setRang(21)" @touchstart="setRang(21)" id="bn12" d="M73.2 24.9c-3 0-6 .3-8.9.8L59.7 1.3C64.2.5 68.7 0 73.2 0v24.9z"/>
	<path @click="setRang(21)" @touchstart="setRang(21)" id="bn13" d="M82.6 25.8c-2.9-.6-5.9-.9-8.9-.9L74 0c4.5 0 9 .5 13.5 1.4l-4.9 24.4z"/>
	<path @click="setRang(21)" @touchstart="setRang(21)" id="bn14" d="M91.7 28.6c-2.8-1.1-5.6-2-8.5-2.6l5.1-24.4c4.4.9 8.8 2.3 13 4l-9.6 23z"/>
	<path @click="setRang(21)" @touchstart="setRang(21)" id="bn15" d="M100 33c-2.5-1.7-5.1-3.1-7.9-4.3l9.8-22.9c4.2 1.8 8.2 4 11.9 6.5L100 33z"/>
	<path @click="setRang(21)" @touchstart="setRang(21)" id="bn16" d="M107.3 39.1c-2.1-2.1-4.4-4-6.9-5.7l14.1-20.6c3.7 2.6 7.2 5.5 10.4 8.7l-17.6 17.6z"/>
	<path @click="setRang(21)" @touchstart="setRang(21)" id="bn17" d="M113.3 46.4c-1.7-2.5-3.6-4.8-5.7-7L125.5 22c3.2 3.2 6 6.8 8.6 10.5l-20.8 13.9z"/>
	<path @click="setRang(21)" @touchstart="setRang(21)" id="bn18" d="M117.8 54.7c-1.1-2.8-2.5-5.4-4.2-7.9l20.8-13.6c2.5 3.8 4.6 7.8 6.4 12l-23 9.5z"/>
	<path @click="setRang(21)" @touchstart="setRang(21)" id="bn19" d="M120.5 63.8c-.6-2.9-1.4-5.8-2.6-8.6l23.1-9.3c1.7 4.2 3 8.6 3.9 13l-24.4 4.9z"/>
	<path @click="setRang(21)" @touchstart="setRang(21)" id="bn20" d="M121.5 73.2c0-3-.3-6-.8-8.9l24.5-4.6c.8 4.5 1.3 9 1.3 13.5h-25z"/>
	<path @click="setRang(21)" @touchstart="setRang(21)" id="bn21" d="M120.5 82.6c.6-2.9.9-5.9.9-8.9l24.9.3c0 4.5-.5 9-1.4 13.5l-24.4-4.9z"/>
	<path @click="setRang(21)" @touchstart="setRang(21)" id="bn22" d="M117.8 91.7c1.1-2.8 2-5.6 2.6-8.5l24.4 5.1c-.9 4.4-2.3 8.8-4 13l-23-9.6z"/>
	<path @click="setRang(21)" @touchstart="setRang(21)" id="bn23" d="M113.3 100c1.7-2.5 3.1-5.1 4.3-7.9l22.9 9.8c-1.8 4.2-4 8.2-6.5 11.9L113.3 100z"/>
	<path @click="setRang(21)" @touchstart="setRang(21)" id="bn24" d="M107.3 107.3c2.1-2.1 4-4.4 5.7-6.9l20.6 14.1c-2.6 3.7-5.5 7.2-8.7 10.4l-17.6-17.6z"/>
</svg>